{
  "teste" : {
    "0" : {
      "0" : {
        "acao" : "ACTION_DOWN",
        "tempo" : 1496418051314,
        "x" : 785,
        "y" : 1327
      },
      "1" : {
        "acao" : "ACTION_DOWN",
        "tempo" : 1496418051509,
        "x" : 800,
        "y" : 1322
      },
      "2" : {
        "acao" : "ACTION_DOWN",
        "tempo" : 1496418051701,
        "x" : 819,
        "y" : 1319
      },
      "3" : {
        "acao" : "ACTION_DOWN",
        "tempo" : 1496418051868,
        "x" : 863,
        "y" : 1334
      },
      "clickCount" : 4,
      "tempoFinal" : 1496418052345,
      "tempoInicial" : 1496418046061
    },
    "1" : {
      "0" : {
        "acao" : "ACTION_DOWN",
        "tempo" : 1496418053508,
        "x" : 763,
        "y" : 679
      },
      "1" : {
        "acao" : "ACTION_DOWN",
        "tempo" : 1496418053684,
        "x" : 775,
        "y" : 667
      },
      "2" : {
        "acao" : "ACTION_DOWN",
        "tempo" : 1496418053854,
        "x" : 780,
        "y" : 668
      },
      "3" : {
        "acao" : "ACTION_DOWN",
        "tempo" : 1496418054021,
        "x" : 771,
        "y" : 673
      },
      "clickCount" : 4,
      "tempoFinal" : 1496418055120,
      "tempoInicial" : 1496418052550
    },
    "2" : {
      "0" : {
        "acao" : "ACTION_DOWN",
        "tempo" : 1496418058939,
        "x" : 826,
        "y" : 394
      },
      "1" : {
        "acao" : "ACTION_DOWN",
        "tempo" : 1496418059118,
        "x" : 829,
        "y" : 411
      },
      "2" : {
        "acao" : "ACTION_DOWN",
        "tempo" : 1496418059291,
        "x" : 848,
        "y" : 422
      },
      "3" : {
        "acao" : "ACTION_DOWN",
        "tempo" : 1496418059476,
        "x" : 845,
        "y" : 414
      },
      "clickCount" : 4,
      "tempoFinal" : 1496418062988,
      "tempoInicial" : 1496418058026
    },
    "3" : {
      "0" : {
        "acao" : "ACTION_DOWN",
        "tempo" : 1496418056415,
        "x" : 802,
        "y" : 540
      },
      "1" : {
        "acao" : "ACTION_DOWN",
        "tempo" : 1496418056618,
        "x" : 794,
        "y" : 544
      },
      "2" : {
        "acao" : "ACTION_DOWN",
        "tempo" : 1496418056785,
        "x" : 806,
        "y" : 546
      },
      "3" : {
        "acao" : "ACTION_DOWN",
        "tempo" : 1496418056970,
        "x" : 781,
        "y" : 535
      },
      "clickCount" : 4,
      "tempoFinal" : 1496418057928,
      "tempoInicial" : 1496418055248
    },
    "4" : {
      "0" : {
        "acao" : "ACTION_DOWN",
        "tempo" : 1496418064266,
        "x" : 728,
        "y" : 425
      },
      "1" : {
        "acao" : "ACTION_DOWN",
        "tempo" : 1496418064485,
        "x" : 748,
        "y" : 424
      },
      "2" : {
        "acao" : "ACTION_DOWN",
        "tempo" : 1496418064661,
        "x" : 777,
        "y" : 417
      },
      "3" : {
        "acao" : "ACTION_DOWN",
        "tempo" : 1496418064827,
        "x" : 780,
        "y" : 409
      },
      "clickCount" : 4,
      "tempoFinal" : 1496418065977,
      "tempoInicial" : 1496418063144
    },
    "5" : {
      "0" : {
        "acao" : "ACTION_DOWN",
        "tempo" : 1496418067141,
        "x" : 793,
        "y" : 408
      },
      "1" : {
        "acao" : "ACTION_DOWN",
        "tempo" : 1496418067345,
        "x" : 812,
        "y" : 438
      },
      "2" : {
        "acao" : "ACTION_MOVE",
        "tempo" : 1496418067414,
        "x" : 812,
        "y" : 438
      },
      "3" : {
        "acao" : "ACTION_DOWN",
        "tempo" : 1496418067516,
        "x" : 831,
        "y" : 461
      },
      "4" : {
        "acao" : "ACTION_MOVE",
        "tempo" : 1496418067596,
        "x" : 831,
        "y" : 461
      },
      "5" : {
        "acao" : "ACTION_DOWN",
        "tempo" : 1496418067700,
        "x" : 853,
        "y" : 461
      },
      "6" : {
        "acao" : "ACTION_MOVE",
        "tempo" : 1496418067782,
        "x" : 853,
        "y" : 461
      },
      "clickCount" : 7,
      "tempoFinal" : 1496418073189,
      "tempoInicial" : 1496418066128
    },
    "6" : {
      "0" : {
        "acao" : "ACTION_DOWN",
        "tempo" : 1496418074578,
        "x" : 772,
        "y" : 489
      },
      "1" : {
        "acao" : "ACTION_DOWN",
        "tempo" : 1496418074751,
        "x" : 779,
        "y" : 466
      },
      "2" : {
        "acao" : "ACTION_DOWN",
        "tempo" : 1496418074922,
        "x" : 803,
        "y" : 478
      },
      "3" : {
        "acao" : "ACTION_DOWN",
        "tempo" : 1496418075115,
        "x" : 772,
        "y" : 446
      },
      "clickCount" : 4,
      "tempoFinal" : 1496418077512,
      "tempoInicial" : 1496418073315
    },
    "7" : {
      "0" : {
        "acao" : "ACTION_DOWN",
        "tempo" : 1496418078337,
        "x" : 832,
        "y" : 451
      },
      "1" : {
        "acao" : "ACTION_DOWN",
        "tempo" : 1496418078535,
        "x" : 844,
        "y" : 436
      },
      "2" : {
        "acao" : "ACTION_DOWN",
        "tempo" : 1496418078714,
        "x" : 870,
        "y" : 433
      },
      "3" : {
        "acao" : "ACTION_DOWN",
        "tempo" : 1496418078926,
        "x" : 889,
        "y" : 424
      },
      "clickCount" : 4,
      "tempoFinal" : 1496418081275,
      "tempoInicial" : 1496418077649
    },
    "8" : {
      "0" : {
        "acao" : "ACTION_DOWN",
        "tempo" : 1496418082432,
        "x" : 898,
        "y" : 399
      },
      "1" : {
        "acao" : "ACTION_DOWN",
        "tempo" : 1496418082632,
        "x" : 927,
        "y" : 418
      },
      "2" : {
        "acao" : "ACTION_DOWN",
        "tempo" : 1496418082799,
        "x" : 933,
        "y" : 392
      },
      "3" : {
        "acao" : "ACTION_DOWN",
        "tempo" : 1496418082969,
        "x" : 966,
        "y" : 417
      },
      "clickCount" : 4,
      "tempoFinal" : 1496418084155,
      "tempoInicial" : 1496418081381
    },
    "9" : {
      "0" : {
        "acao" : "ACTION_DOWN",
        "tempo" : 1496418085494,
        "x" : 829,
        "y" : 419
      },
      "1" : {
        "acao" : "ACTION_DOWN",
        "tempo" : 1496418085692,
        "x" : 842,
        "y" : 376
      },
      "2" : {
        "acao" : "ACTION_MOVE",
        "tempo" : 1496418085772,
        "x" : 842,
        "y" : 376
      },
      "3" : {
        "acao" : "ACTION_DOWN",
        "tempo" : 1496418085868,
        "x" : 875,
        "y" : 418
      },
      "4" : {
        "acao" : "ACTION_MOVE",
        "tempo" : 1496418085941,
        "x" : 875,
        "y" : 418
      },
      "5" : {
        "acao" : "ACTION_DOWN",
        "tempo" : 1496418086059,
        "x" : 896,
        "y" : 375
      },
      "6" : {
        "acao" : "ACTION_MOVE",
        "tempo" : 1496418086153,
        "x" : 896,
        "y" : 375
      },
      "7" : {
        "acao" : "ACTION_DOWN",
        "tempo" : 1496418087124,
        "x" : 130,
        "y" : 113
      },
      "8" : {
        "acao" : "ACTION_MOVE",
        "tempo" : 1496418087197,
        "x" : 153.376220703125,
        "y" : 109.7742919921875
      },
      "9" : {
        "acao" : "ACTION_MOVE",
        "tempo" : 1496418087214,
        "x" : 111.18563842773438,
        "y" : 14.2591552734375
      },
      "10" : {
        "acao" : "ACTION_MOVE",
        "tempo" : 1496418087231,
        "x" : 113.13607788085938,
        "y" : 13.7330322265625
      },
      "11" : {
        "acao" : "ACTION_MOVE",
        "tempo" : 1496418087248,
        "x" : 118.33746337890625,
        "y" : 14.0736083984375
      },
      "12" : {
        "acao" : "ACTION_MOVE",
        "tempo" : 1496418087266,
        "x" : 123.98779296875,
        "y" : 13.4012451171875
      },
      "13" : {
        "acao" : "ACTION_MOVE",
        "tempo" : 1496418087280,
        "x" : 124.7569580078125,
        "y" : 16
      },
      "14" : {
        "acao" : "ACTION_MOVE",
        "tempo" : 1496418087297,
        "x" : 125.04046630859375,
        "y" : 16
      },
      "15" : {
        "acao" : "ACTION_MOVE",
        "tempo" : 1496418087314,
        "x" : 127.63482666015625,
        "y" : 20.51220703125
      },
      "16" : {
        "acao" : "ACTION_MOVE",
        "tempo" : 1496418087331,
        "x" : 124.96783447265625,
        "y" : 18.1788330078125
      },
      "17" : {
        "acao" : "ACTION_MOVE",
        "tempo" : 1496418087347,
        "x" : 127.2298583984375,
        "y" : 18.8525390625
      },
      "18" : {
        "acao" : "ACTION_MOVE",
        "tempo" : 1496418087364,
        "x" : 124.028564453125,
        "y" : 20.605712890625
      },
      "19" : {
        "acao" : "ACTION_MOVE",
        "tempo" : 1496418087380,
        "x" : 122.7806396484375,
        "y" : 20.97802734375
      },
      "20" : {
        "acao" : "ACTION_MOVE",
        "tempo" : 1496418087397,
        "x" : 118.560302734375,
        "y" : 19.6514892578125
      },
      "21" : {
        "acao" : "ACTION_MOVE",
        "tempo" : 1496418087414,
        "x" : 116.08782958984375,
        "y" : 18.2982177734375
      },
      "22" : {
        "acao" : "ACTION_MOVE",
        "tempo" : 1496418087431,
        "x" : 114.19390869140625,
        "y" : 17
      },
      "23" : {
        "acao" : "ACTION_MOVE",
        "tempo" : 1496418087448,
        "x" : 113.39892578125,
        "y" : 16.5665283203125
      },
      "24" : {
        "acao" : "ACTION_MOVE",
        "tempo" : 1496418087464,
        "x" : 113.4815673828125,
        "y" : 17
      },
      "25" : {
        "acao" : "ACTION_MOVE",
        "tempo" : 1496418087481,
        "x" : 113.58843994140625,
        "y" : 16
      },
      "26" : {
        "acao" : "ACTION_MOVE",
        "tempo" : 1496418087498,
        "x" : 117.06243896484375,
        "y" : 5.6875
      },
      "27" : {
        "acao" : "ACTION_MOVE",
        "tempo" : 1496418087514,
        "x" : 115.79315185546875,
        "y" : 5.4334716796875
      },
      "28" : {
        "acao" : "ACTION_MOVE",
        "tempo" : 1496418087531,
        "x" : 111.93798828125,
        "y" : -1.30078125
      },
      "29" : {
        "acao" : "ACTION_MOVE",
        "tempo" : 1496418087548,
        "x" : 108.0633544921875,
        "y" : -5.5445556640625
      },
      "30" : {
        "acao" : "ACTION_MOVE",
        "tempo" : 1496418087565,
        "x" : 104.05804443359375,
        "y" : -11.2127685546875
      },
      "31" : {
        "acao" : "ACTION_MOVE",
        "tempo" : 1496418087581,
        "x" : 103.10467529296875,
        "y" : -16.418701171875
      },
      "32" : {
        "acao" : "ACTION_MOVE",
        "tempo" : 1496418087598,
        "x" : 103.134765625,
        "y" : -20.295654296875
      },
      "33" : {
        "acao" : "ACTION_MOVE",
        "tempo" : 1496418087615,
        "x" : 104.59051513671875,
        "y" : -25.1572265625
      },
      "34" : {
        "acao" : "ACTION_MOVE",
        "tempo" : 1496418087632,
        "x" : 106.28759765625,
        "y" : -31.43798828125
      },
      "35" : {
        "acao" : "ACTION_MOVE",
        "tempo" : 1496418087648,
        "x" : 106.50244140625,
        "y" : -35.2708740234375
      },
      "36" : {
        "acao" : "ACTION_MOVE",
        "tempo" : 1496418087665,
        "x" : 100,
        "y" : -35.572509765625
      },
      "37" : {
        "acao" : "ACTION_MOVE",
        "tempo" : 1496418087682,
        "x" : 96,
        "y" : -36.9404296875
      },
      "38" : {
        "acao" : "ACTION_MOVE",
        "tempo" : 1496418087699,
        "x" : 92,
        "y" : -39.645751953125
      },
      "39" : {
        "acao" : "ACTION_MOVE",
        "tempo" : 1496418087715,
        "x" : 96,
        "y" : -36.95068359375
      },
      "40" : {
        "acao" : "ACTION_MOVE",
        "tempo" : 1496418087732,
        "x" : 105.2982177734375,
        "y" : -35.789306640625
      },
      "41" : {
        "acao" : "ACTION_MOVE",
        "tempo" : 1496418087749,
        "x" : 103.0191650390625,
        "y" : -34.1627197265625
      },
      "42" : {
        "acao" : "ACTION_MOVE",
        "tempo" : 1496418087765,
        "x" : 98,
        "y" : -27.591552734375
      },
      "43" : {
        "acao" : "ACTION_MOVE",
        "tempo" : 1496418087782,
        "x" : 94.58905029296875,
        "y" : -30.643798828125
      },
      "44" : {
        "acao" : "ACTION_MOVE",
        "tempo" : 1496418087799,
        "x" : 88.203857421875,
        "y" : -26.9127197265625
      },
      "45" : {
        "acao" : "ACTION_MOVE",
        "tempo" : 1496418087816,
        "x" : 84.70318603515625,
        "y" : -34.761474609375
      },
      "46" : {
        "acao" : "ACTION_MOVE",
        "tempo" : 1496418087833,
        "x" : 85.98736572265625,
        "y" : -32.31640625
      },
      "47" : {
        "acao" : "ACTION_MOVE",
        "tempo" : 1496418087849,
        "x" : 89.23291015625,
        "y" : -32.5250244140625
      },
      "48" : {
        "acao" : "ACTION_MOVE",
        "tempo" : 1496418087866,
        "x" : 89.650146484375,
        "y" : -29.99920654296875
      },
      "49" : {
        "acao" : "ACTION_MOVE",
        "tempo" : 1496418087883,
        "x" : 89.6451416015625,
        "y" : -32.010986328125
      },
      "50" : {
        "acao" : "ACTION_MOVE",
        "tempo" : 1496418087899,
        "x" : 90.43341064453125,
        "y" : -27.3157958984375
      },
      "51" : {
        "acao" : "ACTION_MOVE",
        "tempo" : 1496418087916,
        "x" : 90.09112548828125,
        "y" : -23.36224365234375
      },
      "52" : {
        "acao" : "ACTION_MOVE",
        "tempo" : 1496418087933,
        "x" : 90.00238037109375,
        "y" : -14.987060546875
      },
      "53" : {
        "acao" : "ACTION_MOVE",
        "tempo" : 1496418087950,
        "x" : 91.6715087890625,
        "y" : -13.64251708984375
      },
      "54" : {
        "acao" : "ACTION_MOVE",
        "tempo" : 1496418087966,
        "x" : 93.6630859375,
        "y" : -7.3583984375
      },
      "55" : {
        "acao" : "ACTION_MOVE",
        "tempo" : 1496418087983,
        "x" : 95,
        "y" : -3.06005859375
      },
      "56" : {
        "acao" : "ACTION_MOVE",
        "tempo" : 1496418088000,
        "x" : 95.4744873046875,
        "y" : -0.6787109375
      },
      "57" : {
        "acao" : "ACTION_MOVE",
        "tempo" : 1496418088017,
        "x" : 96,
        "y" : 2.0277099609375
      },
      "58" : {
        "acao" : "ACTION_MOVE",
        "tempo" : 1496418088033,
        "x" : 96,
        "y" : 5.39892578125
      },
      "59" : {
        "acao" : "ACTION_MOVE",
        "tempo" : 1496418088050,
        "x" : 97.475830078125,
        "y" : 9.01611328125
      },
      "60" : {
        "acao" : "ACTION_MOVE",
        "tempo" : 1496418088067,
        "x" : 99.5,
        "y" : 12
      },
      "clickCount" : 61,
      "tempoFinal" : 1496418089124,
      "tempoInicial" : 1496418084295
    },
    "10" : {
      "0" : {
        "acao" : "ACTION_DOWN",
        "tempo" : 1496418091775,
        "x" : 801,
        "y" : 393
      },
      "1" : {
        "acao" : "ACTION_DOWN",
        "tempo" : 1496418091972,
        "x" : 814,
        "y" : 410
      },
      "2" : {
        "acao" : "ACTION_DOWN",
        "tempo" : 1496418092156,
        "x" : 824,
        "y" : 419
      },
      "3" : {
        "acao" : "ACTION_DOWN",
        "tempo" : 1496418092389,
        "x" : 851,
        "y" : 433
      },
      "clickCount" : 4,
      "tempoFinal" : 1496418093928,
      "tempoInicial" : 1496418089233
    },
    "11" : {
      "0" : {
        "acao" : "ACTION_DOWN",
        "tempo" : 1496418095413,
        "x" : 850,
        "y" : 361
      },
      "1" : {
        "acao" : "ACTION_DOWN",
        "tempo" : 1496418095624,
        "x" : 866,
        "y" : 400
      },
      "2" : {
        "acao" : "ACTION_DOWN",
        "tempo" : 1496418095802,
        "x" : 882,
        "y" : 425
      },
      "3" : {
        "acao" : "ACTION_DOWN",
        "tempo" : 1496418096008,
        "x" : 908,
        "y" : 393
      },
      "4" : {
        "acao" : "ACTION_DOWN",
        "tempo" : 1496418096905,
        "x" : 788,
        "y" : 1677
      },
      "clickCount" : 5,
      "tempoFinal" : 1496418098867,
      "tempoInicial" : 1496418094164
    },
    "12" : {
      "0" : {
        "acao" : "ACTION_DOWN",
        "tempo" : 1496418101100,
        "x" : 873,
        "y" : 446
      },
      "1" : {
        "acao" : "ACTION_DOWN",
        "tempo" : 1496418101308,
        "x" : 904,
        "y" : 476
      },
      "2" : {
        "acao" : "ACTION_DOWN",
        "tempo" : 1496418101505,
        "x" : 919,
        "y" : 449
      },
      "3" : {
        "acao" : "ACTION_DOWN",
        "tempo" : 1496418101730,
        "x" : 952,
        "y" : 450
      },
      "clickCount" : 4,
      "tempoFinal" : 1496418103264,
      "tempoInicial" : 1496418098999
    },
    "13" : {
      "0" : {
        "acao" : "ACTION_DOWN",
        "tempo" : 1496418104196,
        "x" : 837,
        "y" : 435
      },
      "1" : {
        "acao" : "ACTION_DOWN",
        "tempo" : 1496418104380,
        "x" : 836,
        "y" : 460
      },
      "2" : {
        "acao" : "ACTION_DOWN",
        "tempo" : 1496418104542,
        "x" : 850,
        "y" : 461
      },
      "3" : {
        "acao" : "ACTION_DOWN",
        "tempo" : 1496418104705,
        "x" : 886,
        "y" : 470
      },
      "clickCount" : 4,
      "tempoFinal" : 1496418105640,
      "tempoInicial" : 1496418103399
    },
    "14" : {
      "0" : {
        "acao" : "ACTION_DOWN",
        "tempo" : 1496418106715,
        "x" : 880,
        "y" : 433
      },
      "1" : {
        "acao" : "ACTION_DOWN",
        "tempo" : 1496418106906,
        "x" : 888,
        "y" : 460
      },
      "2" : {
        "acao" : "ACTION_DOWN",
        "tempo" : 1496418107091,
        "x" : 908,
        "y" : 498
      },
      "3" : {
        "acao" : "ACTION_DOWN",
        "tempo" : 1496418107284,
        "x" : 917,
        "y" : 502
      },
      "clickCount" : 4,
      "tempoFinal" : 1496418109790,
      "tempoInicial" : 1496418105780
    },
    "nome" : "fabio",
    "numeroDeTelas" : 15,
    "opAnimal" : "rato",
    "opAudio" : "vibrar",
    "opCasa" : "computador",
    "opFreq" : "frequente",
    "opIdade" : "60-65",
    "opRS" : "sim",
    "sexo" : "masculino",
    "tamanhoLetra" : 14,
    "telaHeight" : 2560,
    "telaWidth" : 1440
  }
}
